module gitlab.com/iMil/cbg

go 1.20

require (
	github.com/charmbracelet/glamour v0.6.0
	github.com/samber/go-gpt-3-encoder v0.3.1
	github.com/sashabaranov/go-openai v1.7.0
	github.com/spf13/viper v1.15.0
)

require (
	github.com/alecthomas/chroma v0.10.0 // indirect
	github.com/aymanbagabas/go-osc52 v1.0.3 // indirect
	github.com/aymerick/douceur v0.2.0 // indirect
	github.com/dlclark/regexp2 v1.7.0 // indirect
	github.com/fsnotify/fsnotify v1.6.0 // indirect
	github.com/gorilla/css v1.0.0 // indirect
	github.com/hashicorp/hcl v1.0.0 // indirect
	github.com/lucasb-eyer/go-colorful v1.2.0 // indirect
	github.com/magiconair/properties v1.8.7 // indirect
	github.com/mattn/go-isatty v0.0.16 // indirect
	github.com/mattn/go-runewidth v0.0.14 // indirect
	github.com/microcosm-cc/bluemonday v1.0.21 // indirect
	github.com/mitchellh/mapstructure v1.5.0 // indirect
	github.com/muesli/reflow v0.3.0 // indirect
	github.com/muesli/termenv v0.13.0 // indirect
	github.com/olekukonko/tablewriter v0.0.5 // indirect
	github.com/pelletier/go-toml/v2 v2.0.6 // indirect
	github.com/rivo/uniseg v0.2.0 // indirect
	github.com/samber/lo v1.37.0 // indirect
	github.com/spf13/afero v1.9.3 // indirect
	github.com/spf13/cast v1.5.0 // indirect
	github.com/spf13/jwalterweatherman v1.1.0 // indirect
	github.com/spf13/pflag v1.0.5 // indirect
	github.com/subosito/gotenv v1.4.2 // indirect
	github.com/yuin/goldmark v1.5.2 // indirect
	github.com/yuin/goldmark-emoji v1.0.1 // indirect
	golang.org/x/exp v0.0.0-20220303212507-bbda1eaf7a17 // indirect
	golang.org/x/net v0.4.0 // indirect
	golang.org/x/sys v0.3.0 // indirect
	golang.org/x/text v0.5.0 // indirect
	gopkg.in/ini.v1 v1.67.0 // indirect
	gopkg.in/yaml.v3 v3.0.1 // indirect
)
